simulation/qsim/sawtooth_gen_fpga.msim.vcd
$comment
	File created using the following command:
		vcd file sawtooth_gen_fpga.msim.vcd -direction
$end
$date
	Wed Feb 26 18:47:50 2020
$end
$version
	ModelSim Version 10.5b
$end
$timescale
	1ps
$end

$scope module sawtooth_gen_vlg_vec_tst $end
$var reg 1 ! i_clk $end
$var reg 4 " sw [3:0] $end
$var wire 1 # dac_in [13] $end
$var wire 1 $ dac_in [12] $end
$var wire 1 % dac_in [11] $end
$var wire 1 & dac_in [10] $end
$var wire 1 ' dac_in [9] $end
$var wire 1 ( dac_in [8] $end
$var wire 1 ) dac_in [7] $end
$var wire 1 * dac_in [6] $end
$var wire 1 + dac_in [5] $end
$var wire 1 , dac_in [4] $end
$var wire 1 - dac_in [3] $end
$var wire 1 . dac_in [2] $end
$var wire 1 / dac_in [1] $end
$var wire 1 0 dac_in [0] $end
$var wire 1 1 i_clk_to_dac $end

$scope module i1 $end
$var wire 1 2 gnd $end
$var wire 1 3 vcc $end
$var wire 1 4 unknown $end
$var tri1 1 5 devclrn $end
$var tri1 1 6 devpor $end
$var tri1 1 7 devoe $end
$var wire 1 8 sw[0]~input_o $end
$var wire 1 9 sw[1]~input_o $end
$var wire 1 : sw[2]~input_o $end
$var wire 1 ; sw[3]~input_o $end
$var wire 1 < i_clk_to_dac~output_o $end
$var wire 1 = i_clk_to_dac~0 $end
$var wire 1 > dac_in[0]~output_o $end
$var wire 1 ? dac_in[1]~output_o $end
$var wire 1 @ dac_in[2]~output_o $end
$var wire 1 A dac_in[3]~output_o $end
$var wire 1 B dac_in[4]~output_o $end
$var wire 1 C dac_in[5]~output_o $end
$var wire 1 D dac_in[6]~output_o $end
$var wire 1 E dac_in[7]~output_o $end
$var wire 1 F dac_in[8]~output_o $end
$var wire 1 G dac_in[9]~output_o $end
$var wire 1 H dac_in[10]~output_o $end
$var wire 1 I dac_in[11]~output_o $end
$var wire 1 J dac_in[12]~output_o $end
$var wire 1 K dac_in[13]~output_o $end
$var wire 1 L i_clk~input_o $end
$var wire 1 M i_clk~inputclkctrl_outclk $end
$var wire 1 N dac_in[0]~0_combout $end
$var wire 1 O dac_in[0]~reg0_q $end
$var wire 1 P dac_in[0]~0DUPLICATE_combout $end
$var wire 1 Q dac_in[0]~reg0DUPLICATE_q $end
$var wire 1 R Add0~1_sumout $end
$var wire 1 S dac_in[1]~reg0_q $end
$var wire 1 T Add0~2 $end
$var wire 1 U Add0~5_sumout $end
$var wire 1 V dac_in[2]~reg0_q $end
$var wire 1 W Add0~6 $end
$var wire 1 X Add0~9_sumout $end
$var wire 1 Y dac_in[3]~reg0_q $end
$var wire 1 Z Add0~10 $end
$var wire 1 [ Add0~13_sumout $end
$var wire 1 \ dac_in[4]~reg0_q $end
$var wire 1 ] Add0~14 $end
$var wire 1 ^ Add0~17_sumout $end
$var wire 1 _ dac_in[5]~reg0_q $end
$var wire 1 ` Add0~18 $end
$var wire 1 a Add0~21_sumout $end
$var wire 1 b dac_in[6]~reg0_q $end
$var wire 1 c Add0~22 $end
$var wire 1 d Add0~25_sumout $end
$var wire 1 e dac_in[7]~reg0_q $end
$var wire 1 f Add0~26 $end
$var wire 1 g Add0~29_sumout $end
$var wire 1 h dac_in[8]~reg0_q $end
$var wire 1 i Add0~30 $end
$var wire 1 j Add0~33_sumout $end
$var wire 1 k dac_in[9]~reg0_q $end
$var wire 1 l Add0~34 $end
$var wire 1 m Add0~37_sumout $end
$var wire 1 n dac_in[10]~reg0_q $end
$var wire 1 o Add0~38 $end
$var wire 1 p Add0~41_sumout $end
$var wire 1 q dac_in[11]~reg0_q $end
$var wire 1 r Add0~42 $end
$var wire 1 s Add0~45_sumout $end
$var wire 1 t dac_in[12]~reg0_q $end
$var wire 1 u Add0~46 $end
$var wire 1 v Add0~49_sumout $end
$var wire 1 w dac_in[13]~reg0_q $end
$upscope $end
$upscope $end
$enddefinitions $end
#0
$dumpvars
0!
bx "
00
0/
0.
0-
0,
0+
0*
0)
0(
0'
0&
0%
0$
0#
11
02
13
x4
15
16
17
x8
x9
x:
x;
1<
0=
0>
0?
0@
0A
0B
0C
0D
0E
0F
0G
0H
0I
0J
0K
0L
0M
1N
0O
1P
0Q
0R
0S
0T
0U
0V
0W
0X
0Y
0Z
0[
0\
0]
0^
0_
0`
0a
0b
0c
0d
0e
0f
0g
0h
0i
0j
0k
0l
0m
0n
0o
0p
0q
0r
0s
0t
0u
0v
0w
$end
#5000
1!
1L
1M
1=
0<
01
#10000
0!
0L
0M
0=
1<
11
1Q
1O
1>
10
1R
0P
0N
#15000
1!
1L
1M
1=
0<
01
#20000
0!
0L
0M
0=
1<
11
0Q
0O
1S
0>
1?
1/
00
1P
1N
#25000
1!
1L
1M
1=
0<
01
#30000
0!
0L
0M
0=
1<
11
1Q
1O
1T
1>
10
0R
0P
0N
1U
#35000
1!
1L
1M
1=
0<
01
#40000
0!
0L
0M
0=
1<
11
0Q
0O
0S
1V
0T
1W
0>
0?
1@
1.
0/
00
1P
0U
1N
0W
1U
1X
0X
#45000
1!
1L
1M
1=
0<
01
#50000
0!
0L
0M
0=
1<
11
1Q
1O
1>
10
1R
0P
0N
#55000
1!
1L
1M
1=
0<
01
#60000
0!
0L
0M
0=
1<
11
0Q
0O
1S
0>
1?
1/
00
1P
1N
#65000
1!
1L
1M
1=
0<
01
#70000
0!
0L
0M
0=
1<
11
1Q
1O
1T
1>
10
0R
0P
0N
1W
0U
1X
#75000
1!
1L
1M
1=
0<
01
#80000
0!
0L
0M
0=
1<
11
0Q
0O
0S
0V
1Y
0T
1Z
0W
0>
0?
0@
1A
1-
0.
0/
00
1P
0X
1U
1N
0Z
0U
1[
1X
0[
#85000
1!
1L
1M
1=
0<
01
#90000
0!
0L
0M
0=
1<
11
1Q
1O
1>
10
1R
0P
0N
#95000
1!
1L
1M
1=
0<
01
#100000
0!
0L
0M
0=
1<
11
0Q
0O
1S
0>
1?
1/
00
1P
1N
#105000
1!
1L
1M
1=
0<
01
#110000
0!
0L
0M
0=
1<
11
1Q
1O
1T
1>
10
0R
0P
0N
1U
#115000
1!
1L
1M
1=
0<
01
#120000
0!
0L
0M
0=
1<
11
0Q
0O
0S
1V
0T
1W
0>
0?
1@
1.
0/
00
1P
0U
1N
0W
1Z
1U
0X
0Z
1X
1[
0[
#125000
1!
1L
1M
1=
0<
01
#130000
0!
0L
0M
0=
1<
11
1Q
1O
1>
10
1R
0P
0N
#135000
1!
1L
1M
1=
0<
01
#140000
0!
0L
0M
0=
1<
11
0Q
0O
1S
0>
1?
1/
00
1P
1N
#145000
1!
1L
1M
1=
0<
01
#150000
0!
0L
0M
0=
1<
11
1Q
1O
1T
1>
10
0R
0P
0N
1W
0U
1Z
0X
1[
#155000
1!
1L
1M
1=
0<
01
#160000
0!
0L
0M
0=
1<
11
0Q
0O
0S
0V
0Y
1\
0T
1]
0Z
0W
0>
0?
0@
0A
1B
1,
0-
0.
0/
00
1P
0[
1X
1U
1N
0]
0U
1^
1[
0X
0^
#165000
1!
1L
1M
1=
0<
01
#170000
0!
0L
0M
0=
1<
11
1Q
1O
1>
10
1R
0P
0N
#175000
1!
1L
1M
1=
0<
01
#180000
0!
0L
0M
0=
1<
11
0Q
0O
1S
0>
1?
1/
00
1P
1N
#185000
1!
1L
1M
1=
0<
01
#190000
0!
0L
0M
0=
1<
11
1Q
1O
1T
1>
10
0R
0P
0N
1U
#195000
1!
1L
1M
1=
0<
01
#200000
0!
0L
0M
0=
1<
11
0Q
0O
0S
1V
0T
1W
0>
0?
1@
1.
0/
00
1P
0U
1N
0W
1U
1X
0X
#205000
1!
1L
1M
1=
0<
01
#210000
0!
0L
0M
0=
1<
11
1Q
1O
1>
10
1R
0P
0N
#215000
1!
1L
1M
1=
0<
01
#220000
0!
0L
0M
0=
1<
11
0Q
0O
1S
0>
1?
1/
00
1P
1N
#225000
1!
1L
1M
1=
0<
01
#230000
0!
0L
0M
0=
1<
11
1Q
1O
1T
1>
10
0R
0P
0N
1W
0U
1X
#235000
1!
1L
1M
1=
0<
01
#240000
0!
0L
0M
0=
1<
11
0Q
0O
0S
0V
1Y
0T
1Z
0W
0>
0?
0@
1A
1-
0.
0/
00
1P
0X
1U
1N
1]
0Z
0U
0[
1X
0]
1^
1[
0^
#245000
1!
1L
1M
1=
0<
01
#250000
0!
0L
0M
0=
1<
11
1Q
1O
1>
10
1R
0P
0N
#255000
1!
1L
1M
1=
0<
01
#260000
0!
0L
0M
0=
1<
11
0Q
0O
1S
0>
1?
1/
00
1P
1N
#265000
1!
1L
1M
1=
0<
01
#270000
0!
0L
0M
0=
1<
11
1Q
1O
1T
1>
10
0R
0P
0N
1U
#275000
1!
1L
1M
1=
0<
01
#280000
0!
0L
0M
0=
1<
11
0Q
0O
0S
1V
0T
1W
0>
0?
1@
1.
0/
00
1P
0U
1N
0W
1Z
1U
0X
0Z
1]
1X
0[
0]
1[
1^
0^
#285000
1!
1L
1M
1=
0<
01
#290000
0!
0L
0M
0=
1<
11
1Q
1O
1>
10
1R
0P
0N
#295000
1!
1L
1M
1=
0<
01
#300000
0!
0L
0M
0=
1<
11
0Q
0O
1S
0>
1?
1/
00
1P
1N
#305000
1!
1L
1M
1=
0<
01
#310000
0!
0L
0M
0=
1<
11
1Q
1O
1T
1>
10
0R
0P
0N
1W
0U
1Z
0X
1]
0[
1^
#315000
1!
1L
1M
1=
0<
01
#320000
0!
0L
0M
0=
1<
11
0Q
0O
0S
0V
0Y
0\
1_
0T
1`
0]
0Z
0W
0>
0?
0@
0A
0B
1C
1+
0,
0-
0.
0/
00
1P
0^
1[
1X
1U
1N
0`
0U
1a
1^
0[
0X
0a
#325000
1!
1L
1M
1=
0<
01
#330000
0!
0L
0M
0=
1<
11
1Q
1O
1>
10
1R
0P
0N
#335000
1!
1L
1M
1=
0<
01
#340000
0!
0L
0M
0=
1<
11
0Q
0O
1S
0>
1?
1/
00
1P
1N
#345000
1!
1L
1M
1=
0<
01
#350000
0!
0L
0M
0=
1<
11
1Q
1O
1T
1>
10
0R
0P
0N
1U
#355000
1!
1L
1M
1=
0<
01
#360000
0!
0L
0M
0=
1<
11
0Q
0O
0S
1V
0T
1W
0>
0?
1@
1.
0/
00
1P
0U
1N
0W
1U
1X
0X
#365000
1!
1L
1M
1=
0<
01
#370000
0!
0L
0M
0=
1<
11
1Q
1O
1>
10
1R
0P
0N
#375000
1!
1L
1M
1=
0<
01
#380000
0!
0L
0M
0=
1<
11
0Q
0O
1S
0>
1?
1/
00
1P
1N
#385000
1!
1L
1M
1=
0<
01
#390000
0!
0L
0M
0=
1<
11
1Q
1O
1T
1>
10
0R
0P
0N
1W
0U
1X
#395000
1!
1L
1M
1=
0<
01
#400000
0!
0L
0M
0=
1<
11
0Q
0O
0S
0V
1Y
0T
1Z
0W
0>
0?
0@
1A
1-
0.
0/
00
1P
0X
1U
1N
0Z
0U
1[
1X
0[
#405000
1!
1L
1M
1=
0<
01
#410000
0!
0L
0M
0=
1<
11
1Q
1O
1>
10
1R
0P
0N
#415000
1!
1L
1M
1=
0<
01
#420000
0!
0L
0M
0=
1<
11
0Q
0O
1S
0>
1?
1/
00
1P
1N
#425000
1!
1L
1M
1=
0<
01
#430000
0!
0L
0M
0=
1<
11
1Q
1O
1T
1>
10
0R
0P
0N
1U
#435000
1!
1L
1M
1=
0<
01
#440000
0!
0L
0M
0=
1<
11
0Q
0O
0S
1V
0T
1W
0>
0?
1@
1.
0/
00
1P
0U
1N
0W
1Z
1U
0X
0Z
1X
1[
0[
#445000
1!
1L
1M
1=
0<
01
#450000
0!
0L
0M
0=
1<
11
1Q
1O
1>
10
1R
0P
0N
#455000
1!
1L
1M
1=
0<
01
#460000
0!
0L
0M
0=
1<
11
0Q
0O
1S
0>
1?
1/
00
1P
1N
#465000
1!
1L
1M
1=
0<
01
#470000
0!
0L
0M
0=
1<
11
1Q
1O
1T
1>
10
0R
0P
0N
1W
0U
1Z
0X
1[
#475000
1!
1L
1M
1=
0<
01
#480000
0!
0L
0M
0=
1<
11
0Q
0O
0S
0V
0Y
1\
0T
1]
0Z
0W
0>
0?
0@
0A
1B
1,
0-
0.
0/
00
1P
0[
1X
1U
1N
1`
0]
0U
0^
1[
0X
0`
1a
1^
0a
#485000
1!
1L
1M
1=
0<
01
#490000
0!
0L
0M
0=
1<
11
1Q
1O
1>
10
1R
0P
0N
#495000
1!
1L
1M
1=
0<
01
#500000
0!
0L
0M
0=
1<
11
0Q
0O
1S
0>
1?
1/
00
1P
1N
#505000
1!
1L
1M
1=
0<
01
#510000
0!
0L
0M
0=
1<
11
1Q
1O
1T
1>
10
0R
0P
0N
1U
#515000
1!
1L
1M
1=
0<
01
#520000
0!
0L
0M
0=
1<
11
0Q
0O
0S
1V
0T
1W
0>
0?
1@
1.
0/
00
1P
0U
1N
0W
1U
1X
0X
#525000
1!
1L
1M
1=
0<
01
#530000
0!
0L
0M
0=
1<
11
1Q
1O
1>
10
1R
0P
0N
#535000
1!
1L
1M
1=
0<
01
#540000
0!
0L
0M
0=
1<
11
0Q
0O
1S
0>
1?
1/
00
1P
1N
#545000
1!
1L
1M
1=
0<
01
#550000
0!
0L
0M
0=
1<
11
1Q
1O
1T
1>
10
0R
0P
0N
1W
0U
1X
#555000
1!
1L
1M
1=
0<
01
#560000
0!
0L
0M
0=
1<
11
0Q
0O
0S
0V
1Y
0T
1Z
0W
0>
0?
0@
1A
1-
0.
0/
00
1P
0X
1U
1N
1]
0Z
0U
0[
1X
1`
0]
0^
1[
0`
1a
1^
0a
#565000
1!
1L
1M
1=
0<
01
#570000
0!
0L
0M
0=
1<
11
1Q
1O
1>
10
1R
0P
0N
#575000
1!
1L
1M
1=
0<
01
#580000
0!
0L
0M
0=
1<
11
0Q
0O
1S
0>
1?
1/
00
1P
1N
#585000
1!
1L
1M
1=
0<
01
#590000
0!
0L
0M
0=
1<
11
1Q
1O
1T
1>
10
0R
0P
0N
1U
#595000
1!
1L
1M
1=
0<
01
#600000
0!
0L
0M
0=
1<
11
0Q
0O
0S
1V
0T
1W
0>
0?
1@
1.
0/
00
1P
0U
1N
0W
1Z
1U
0X
0Z
1]
1X
0[
0]
1`
1[
0^
0`
1^
1a
0a
#605000
1!
1L
1M
1=
0<
01
#610000
0!
0L
0M
0=
1<
11
1Q
1O
1>
10
1R
0P
0N
#615000
1!
1L
1M
1=
0<
01
#620000
0!
0L
0M
0=
1<
11
0Q
0O
1S
0>
1?
1/
00
1P
1N
#625000
1!
1L
1M
1=
0<
01
#630000
0!
0L
0M
0=
1<
11
1Q
1O
1T
1>
10
0R
0P
0N
1W
0U
1Z
0X
1]
0[
1`
0^
1a
#635000
1!
1L
1M
1=
0<
01
#640000
0!
0L
0M
0=
1<
11
0Q
0O
0S
0V
0Y
0\
0_
1b
0T
1c
0`
0]
0Z
0W
0>
0?
0@
0A
0B
0C
1D
1*
0+
0,
0-
0.
0/
00
1P
0a
1^
1[
1X
1U
1N
0c
0U
1d
1a
0^
0[
0X
0d
#645000
1!
1L
1M
1=
0<
01
#650000
0!
0L
0M
0=
1<
11
1Q
1O
1>
10
1R
0P
0N
#655000
1!
1L
1M
1=
0<
01
#660000
0!
0L
0M
0=
1<
11
0Q
0O
1S
0>
1?
1/
00
1P
1N
#665000
1!
1L
1M
1=
0<
01
#670000
0!
0L
0M
0=
1<
11
1Q
1O
1T
1>
10
0R
0P
0N
1U
#675000
1!
1L
1M
1=
0<
01
#680000
0!
0L
0M
0=
1<
11
0Q
0O
0S
1V
0T
1W
0>
0?
1@
1.
0/
00
1P
0U
1N
0W
1U
1X
0X
#685000
1!
1L
1M
1=
0<
01
#690000
0!
0L
0M
0=
1<
11
1Q
1O
1>
10
1R
0P
0N
#695000
1!
1L
1M
1=
0<
01
#700000
0!
0L
0M
0=
1<
11
0Q
0O
1S
0>
1?
1/
00
1P
1N
#705000
1!
1L
1M
1=
0<
01
#710000
0!
0L
0M
0=
1<
11
1Q
1O
1T
1>
10
0R
0P
0N
1W
0U
1X
#715000
1!
1L
1M
1=
0<
01
#720000
0!
0L
0M
0=
1<
11
0Q
0O
0S
0V
1Y
0T
1Z
0W
0>
0?
0@
1A
1-
0.
0/
00
1P
0X
1U
1N
0Z
0U
1[
1X
0[
#725000
1!
1L
1M
1=
0<
01
#730000
0!
0L
0M
0=
1<
11
1Q
1O
1>
10
1R
0P
0N
#735000
1!
1L
1M
1=
0<
01
#740000
0!
0L
0M
0=
1<
11
0Q
0O
1S
0>
1?
1/
00
1P
1N
#745000
1!
1L
1M
1=
0<
01
#750000
0!
0L
0M
0=
1<
11
1Q
1O
1T
1>
10
0R
0P
0N
1U
#755000
1!
1L
1M
1=
0<
01
#760000
0!
0L
0M
0=
1<
11
0Q
0O
0S
1V
0T
1W
0>
0?
1@
1.
0/
00
1P
0U
1N
0W
1Z
1U
0X
0Z
1X
1[
0[
#765000
1!
1L
1M
1=
0<
01
#770000
0!
0L
0M
0=
1<
11
1Q
1O
1>
10
1R
0P
0N
#775000
1!
1L
1M
1=
0<
01
#780000
0!
0L
0M
0=
1<
11
0Q
0O
1S
0>
1?
1/
00
1P
1N
#785000
1!
1L
1M
1=
0<
01
#790000
0!
0L
0M
0=
1<
11
1Q
1O
1T
1>
10
0R
0P
0N
1W
0U
1Z
0X
1[
#795000
1!
1L
1M
1=
0<
01
#800000
0!
0L
0M
0=
1<
11
0Q
0O
0S
0V
0Y
1\
0T
1]
0Z
0W
0>
0?
0@
0A
1B
1,
0-
0.
0/
00
1P
0[
1X
1U
1N
0]
0U
1^
1[
0X
0^
#805000
1!
1L
1M
1=
0<
01
#810000
0!
0L
0M
0=
1<
11
1Q
1O
1>
10
1R
0P
0N
#815000
1!
1L
1M
1=
0<
01
#820000
0!
0L
0M
0=
1<
11
0Q
0O
1S
0>
1?
1/
00
1P
1N
#825000
1!
1L
1M
1=
0<
01
#830000
0!
0L
0M
0=
1<
11
1Q
1O
1T
1>
10
0R
0P
0N
1U
#835000
1!
1L
1M
1=
0<
01
#840000
0!
0L
0M
0=
1<
11
0Q
0O
0S
1V
0T
1W
0>
0?
1@
1.
0/
00
1P
0U
1N
0W
1U
1X
0X
#845000
1!
1L
1M
1=
0<
01
#850000
0!
0L
0M
0=
1<
11
1Q
1O
1>
10
1R
0P
0N
#855000
1!
1L
1M
1=
0<
01
#860000
0!
0L
0M
0=
1<
11
0Q
0O
1S
0>
1?
1/
00
1P
1N
#865000
1!
1L
1M
1=
0<
01
#870000
0!
0L
0M
0=
1<
11
1Q
1O
1T
1>
10
0R
0P
0N
1W
0U
1X
#875000
1!
1L
1M
1=
0<
01
#880000
0!
0L
0M
0=
1<
11
0Q
0O
0S
0V
1Y
0T
1Z
0W
0>
0?
0@
1A
1-
0.
0/
00
1P
0X
1U
1N
1]
0Z
0U
0[
1X
0]
1^
1[
0^
#885000
1!
1L
1M
1=
0<
01
#890000
0!
0L
0M
0=
1<
11
1Q
1O
1>
10
1R
0P
0N
#895000
1!
1L
1M
1=
0<
01
#900000
0!
0L
0M
0=
1<
11
0Q
0O
1S
0>
1?
1/
00
1P
1N
#905000
1!
1L
1M
1=
0<
01
#910000
0!
0L
0M
0=
1<
11
1Q
1O
1T
1>
10
0R
0P
0N
1U
#915000
1!
1L
1M
1=
0<
01
#920000
0!
0L
0M
0=
1<
11
0Q
0O
0S
1V
0T
1W
0>
0?
1@
1.
0/
00
1P
0U
1N
0W
1Z
1U
0X
0Z
1]
1X
0[
0]
1[
1^
0^
#925000
1!
1L
1M
1=
0<
01
#930000
0!
0L
0M
0=
1<
11
1Q
1O
1>
10
1R
0P
0N
#935000
1!
1L
1M
1=
0<
01
#940000
0!
0L
0M
0=
1<
11
0Q
0O
1S
0>
1?
1/
00
1P
1N
#945000
1!
1L
1M
1=
0<
01
#950000
0!
0L
0M
0=
1<
11
1Q
1O
1T
1>
10
0R
0P
0N
1W
0U
1Z
0X
1]
0[
1^
#955000
1!
1L
1M
1=
0<
01
#960000
0!
0L
0M
0=
1<
11
0Q
0O
0S
0V
0Y
0\
1_
0T
1`
0]
0Z
0W
0>
0?
0@
0A
0B
1C
1+
0,
0-
0.
0/
00
1P
0^
1[
1X
1U
1N
1c
0`
0U
0a
1^
0[
0X
0c
1d
1a
0d
#965000
1!
1L
1M
1=
0<
01
#970000
0!
0L
0M
0=
1<
11
1Q
1O
1>
10
1R
0P
0N
#975000
1!
1L
1M
1=
0<
01
#980000
0!
0L
0M
0=
1<
11
0Q
0O
1S
0>
1?
1/
00
1P
1N
#985000
1!
1L
1M
1=
0<
01
#990000
0!
0L
0M
0=
1<
11
1Q
1O
1T
1>
10
0R
0P
0N
1U
#995000
1!
1L
1M
1=
0<
01
